﻿# Team 35 Melbourne
# Zhe Xu -----------741434
# Qi Huang --------732802
# Botian Chen ----750249
# Han Yu -----------744981
# Kun He-----------721391


1. 装以下的包：
nltk
BeautifulSoup
numpy
scipy
sklearn

note: nltk 所有的数据要下载 ： 
>>> import nltk
>>> nltk.download()

2. test.py 里面有调用示例， 第一次预测会比较慢，因为要load wordnet

